Initial [n] in the third person pronouns in prepositional constructions in the dialect of Mikhalevskaya village
…
As a next step we need to create a table to look and the predicted probabilities of this model for different values of independent variables.

df %>% 
  count(year, education, gender, form, consonant) %>% 
  select(-n, -consonant) %>% 
  unique() ->
  fit_prob_df
fit_prob_df %>% 
  predict(fit4, newdata = ., type = "response") -> 
  fit_prob_df$prediction
fit_prob_df %>% 
  arrange(prediction)

## # A tibble: 86 x 5
##     year education gender   form prediction
##    <int>    <fctr> <fctr> <fctr>      <dbl>
##  1  1928  high-mid female      m 0.01613983
##  2  1922   low-mid female      m 0.02176185
##  3  1922       low female      m 0.02313566
##  4  1930   low-mid   male      m 0.02962140
##  5  1925       low female      m 0.03483201
##  6  1922   low-mid female     pl 0.03693281
##  7  1922       low female     pl 0.03922595
##  8  1935  high-mid female      m 0.04199200
##  9  1922   low-mid female      f 0.04908140
## 10  1928   low-mid female      m 0.04911725
## # ... with 76 more rows

fit_prob_df %>% 
  arrange(desc(prediction))

## # A tibble: 86 x 5
##     year education gender   form prediction
##    <int>    <fctr> <fctr> <fctr>      <dbl>
##  1  1996      high female      f  0.9994919
##  2  1996      high female     pl  0.9993163
##  3  1974      high female      f  0.9889639
##  4  1974      high female     pl  0.9852028
##  5  1975      high   male      f  0.9787324
##  6  1974      high female      m  0.9747619
##  7  1968      high female      f  0.9747430
##  8  1975      high   male     pl  0.9715847
##  9  1968      high female     pl  0.9663006
## 10  1975      high   male      m  0.9520029
## # ... with 76 more rows
As we see, the lowest probability of initial [n] 0.01613983 is for the male pronoun in the speech of female informant 1928 year of birth and high-mid education level. The highest 0.9994919 for the female pronoun in the speech of female informant 1996 year of birth and high education level. This data is hardly interpetable because we mix socolinguitic predictors and observation-characteristic predictor. For this table, let us consider solely sociolinguitic factors (to understand something about the speakers of the dialect).

df %>% 
  count(year, education, gender, consonant) %>% 
  select(-n, -consonant) %>% 
  unique() ->
  proba_df
fit_socio <- glm(consonant ~ year + education + gender, data = df, family = "binomial")
proba_df %>% 
  predict(fit_socio, newdata = ., type = "response") -> 
  proba_df$prediction
proba_df %>% 
  arrange(prediction)

## # A tibble: 30 x 4
##     year education gender prediction
##    <int>    <fctr> <fctr>      <dbl>
##  1  1928  high-mid female 0.02796769
##  2  1922   low-mid female 0.03506336
##  3  1922       low female 0.03685432
##  4  1930   low-mid   male 0.04137803
##  5  1925       low female 0.05424350
##  6  1935  high-mid female 0.06888340
##  7  1928   low-mid female 0.07547728
##  8  1933   low-mid female 0.13813156
##  9  1951  high-mid   male 0.20545696
## 10  1952  high-mid   male 0.22835545
## # ... with 20 more rows

proba_df %>% 
  arrange(desc(prediction))

## # A tibble: 30 x 4
##     year education gender prediction
##    <int>    <fctr> <fctr>      <dbl>
##  1  1996      high female  0.9989835
##  2  1974      high female  0.9805907
##  3  1975      high   male  0.9589163
##  4  1968      high female  0.9574235
##  5  1963      high female  0.9197085
##  6  1960      high female  0.8842864
##  7  1966      high   male  0.8739123
##  8  1954      high female  0.7728024
##  9  1969  high-mid   male  0.7457076
## 10  1961  high-mid female  0.7117072
## # ... with 20 more rows
…
